Semi-parametric survival analysis with Cox models · LSurvival: survival analysis for left-truncated, right-censored outcomes
…
Competing event analysis: Cox-model-based estimator of the cumulative risk/survival function

using Random, LSurvival, Distributions, LinearAlgebra

# simulate some data and store in a DataFrame
using DataFrames
z, x, t, d, event, wt = LSurvival.dgm_comprisk(MersenneTwister(122), 1000)
X = hcat(x,z)
enter = t .* rand(MersenneTwister(122), length(d))*0.02 # create some fake entry times
df = DataFrame("x"=>x[:,1],"z"=>z[:,1],"t"=>t,"enter"=>enter,"event"=>event,"wt"=>wt)
show(df)
Output:  event can be 0 (censored) 1 (event type 1: e.g. death from lung cancer) or 2 (event type 2: e.g. death from causes other than lung cancer)

1000×6 DataFrame
  Row │ x        z        t        enter       event    wt      
      │ Float64  Float64  Float64  Float64     Float64  Float64 
──────┼─────────────────────────────────────────────────────────
    1 │  2.7596   0.475    1.0     0.00190001      0.0   1.2425
    2 │  4.166    0.3008   1.0     0.00120305      0.0   0.5362
    3 │  1.1702   4.1267   1.0     0.0165066       0.0   0.4096
    4 │  2.7756   4.7509   1.0     0.0190037       0.0   0.5082
  ⋮   │    ⋮        ⋮        ⋮         ⋮          ⋮        ⋮
  997 │  4.3977   4.611    1.0     0.0184439       0.0   0.6857
  998 │  0.3136   1.8464   0.6908  0.00510191      2.0   1.118
  999 │  3.7132   3.7309   1.0     0.0149235       0.0   1.2687
 1000 │  0.9304   3.3816   1.0     0.0135263       0.0   0.4498
                                                992 rows omitted
…
